3,Load Balancer Big IP F5 i5600 Series,1,1,5,F5,f5-pcua-pjhm,"{""row"":""1"",""rack"":""9""}",23,8/3/2018,8/2/2021,11/18/2021 10:10,11/18/2021 10:16
4,Load Balancer Big IP F5 i5600 Series,1,1,5,F5,f5-ugjw-taqf,"{""row"":""1"",""rack"":""9""}",22,8/3/2018,8/2/2021,11/18/2021 10:16,11/18/2021 10:16
5,IBM PowerLinux 8247 22L,1,1,1,IBM,687AD8A,"{""row"":""1"",""rack"":""9""}",18,8/3/2018,8/2/2021,11/18/2021 10:20,11/18/2021 10:20
6,IBM PowerLinux 8247 22L,1,1,1,IBM,687AD7A,"{""row"":""1"",""rack"":""9""}",16,8/3/2018,8/2/2021,11/18/2021 10:24,11/18/2021 10:24
7,Lenovo ThinkSystem SR530,1,2,1,LENOVO,J300ACW6,"{""row"":""1"",""rack"":""9""}",33,8/3/2018,8/2/2021,11/18/2021 10:33,11/18/2021 10:33
8,Lenovo ThinkSystem SR530,1,2,1,LENOVO,J300ACW5,"{""row"":""1"",""rack"":""9""}",32,8/3/2018,8/2/2021,11/18/2021 10:36,11/18/2021 10:36
9,Lenovo ThinkSystem SR530,1,2,1,LENOVO,J300ACW4,"{""row"":""1"",""rack"":""9""}",31,8/3/2018,8/2/2021,11/18/2021 10:40,11/18/2021 10:40
10,Lenovo ThinkSystem DS4200,1,2,1,LENOVO,J34529E,"{""row"":""1"",""rack"":""9""}",25,8/3/2018,8/2/2021,11/18/2021 10:44,11/18/2021 10:44
11,Lenovo ThinkSystem DS4200,1,2,1,LENOVO,J34529F,"{""row"":""1"",""rack"":""9""}",24,8/3/2018,8/2/2021,11/18/2021 10:47,11/18/2021 10:47
12,Lenovo B300 SAN Switch,1,2,3,LENOVO,-,"{""row"":""1"",""rack"":""9""}",15,8/3/2018,8/2/2021,11/18/2021 10:50,11/18/2021 10:50
14,Lenovo Rack Switch NE1032T,1,2,3,LENOVO,---,"{""row"":""1"",""rack"":""9""}",36,8/3/2018,8/2/2021,11/18/2021 10:58,11/18/2021 10:58
15,Lenovo ThinkSystem SR530,1,2,1,LENOVO,J300ACW7,"{""row"":""1"",""rack"":""9""}",30,8/3/2018,8/2/2021,11/18/2021 11:04,11/18/2021 11:04
16,IBM System Storage TS3100 Tape Library Model L2U,1,2,5,IBM,78CF541,"{""row"":""1"",""rack"":""3""}",28,8/3/2018,8/2/2021,11/18/2021 11:06,11/18/2021 11:06
17,715HD3 Switch : Lenovo ThinkSystem NE1032 Rack Swich,1,3,3,Lenovo,MM58722,"{""row"":""3"",""rack"":""5""}",41,8/3/2018,8/31/2022,11/18/2021 11:08,11/18/2021 11:08
18,Lenovo System X3550 m5,1,2,1,LENOVO,687AADD,"{""row"":""1"",""rack"":""9""}",20,8/3/2018,8/2/2021,11/18/2021 11:09,11/18/2021 11:09
19,7X84CTO6WW Nutanix Cluster : ThinkAgile HX7520,1,3,1,Lenovo ThinkAgile,J3024T60,"{""row"":""3"",""rack"":""5""}",2,8/3/2018,8/2/2022,11/18/2021 11:09,12/2/2021 10:12
20,7X84CTO6WW Nutanix Cluster : ThinkAgile HX7520,1,3,1,Lenovo ThinkAgile,J3024T5Y,"{""row"":""3"",""rack"":""5""}",6,8/3/2018,8/2/2021,11/18/2021 11:11,12/2/2021 10:12
21,7X84CTO6WW Nutanix Cluster : ThinkAgile HX7520,1,3,1,Lenovo ThinkAgile,J3024T5Z,"{""row"":""3"",""rack"":""5""}",4,8/3/2018,8/2/2021,11/18/2021 11:14,12/2/2021 10:13
22,123,1,1,1,Test,12332sdfsd,"{""row"":""123"",""rack"":""123""}",123,12/25/2021,12/31/2021,11/30/2021 6:21,11/30/2021 6:21
23,Server IBM X 3650 M3,2,4,1,IBM,NULL,"{""row"":""2"",""rack"":""4A""}",NULL,11/1/2021,11/30/2021,11/30/2021 6:33,11/30/2021 6:33
24,Server IBM X 3650 M3,2,4,1,IBM,NULL,"{""row"":""2"",""rack"":""4A""}",NULL,NULL,NULL,11/30/2021 6:42,11/30/2021 6:42
25,Server IBM X 3650 M3,2,4,1,IBM,NULL,"{""row"":""2"",""rack"":""4A""}",NULL,NULL,NULL,11/30/2021 6:42,11/30/2021 6:42
26,Server IBM X 3650 M3,2,4,1,IBM,NULL,"{""row"":""2"",""rack"":""4A""}",NULL,NULL,NULL,11/30/2021 6:43,11/30/2021 6:43
27,SAN Switch 249824E Storwize V7000,2,4,3,IBM,NULL,"{""row"":""2"",""rack"":""4A""}",NULL,NULL,NULL,11/30/2021 6:45,11/30/2021 6:45
28,SAN Switch 249824E Storwize V7000,2,4,3,IBM,NULL,"{""row"":""2"",""rack"":""4A""}",NULL,NULL,NULL,11/30/2021 6:45,11/30/2021 6:45
29,Server X 3550M5 Lenovo,1,4,1,Lenovo,NULL,"{""row"":""2"",""rack"":""5A""}",NULL,11/1/2021,12/31/2021,11/30/2021 6:46,11/30/2021 6:46
30,Server X 3550 M5 Lenovo,1,4,1,Lenovo,NULL,"{""row"":""2"",""rack"":""5A""}",NULL,NULL,NULL,11/30/2021 6:47,11/30/2021 6:47
31,Server X 3550 M5 Lenovo,1,4,1,Lenovo,NULL,"{""row"":""2"",""rack"":""6A""}",NULL,NULL,NULL,11/30/2021 6:48,11/30/2021 6:48
32,Server X 3850 X6 Lenovo,1,1,1,LENOVO,NULL,"{""row"":""2"",""rack"":""5A""}",NULL,NULL,NULL,11/30/2021 6:52,11/30/2021 6:52
33,Server X 3850 X6 Lenovo,1,1,1,LENOVO,NULL,"{""row"":""2"",""rack"":""6A""}",NULL,NULL,NULL,11/30/2021 6:53,11/30/2021 6:53
34,Server X 3850 X5 IBM,2,4,1,IBM,NULL,"{""row"":""2"",""rack"":""6A""}",NULL,NULL,NULL,11/30/2021 6:54,11/30/2021 6:54
35,IBM System P560,2,4,1,IBM,NULL,"{""row"":""3"",""rack"":""8C""}",NULL,NULL,NULL,11/30/2021 6:55,11/30/2021 6:55
36,IBM PowerPC 520,2,4,1,IBM,NULL,"{""row"":""3"",""rack"":""8B""}",NULL,NULL,NULL,11/30/2021 6:56,11/30/2021 6:56
37,Lenovo System x3850 X6,2,1,1,LENOVO,SV53167134,"{""row"":""3"",""rack"":""8A""}",NULL,NULL,NULL,11/30/2021 6:57,11/30/2021 6:57
38,Dell Switch S4128,1,4,3,DELL,NULL,"{""row"":""3"",""rack"":""8C""}",NULL,NULL,NULL,11/30/2021 6:58,11/30/2021 6:58
39,Dell Switch S4128,1,4,3,DELL,NULL,"{""row"":""3"",""rack"":""8C""}",NULL,NULL,NULL,11/30/2021 7:07,11/30/2021 7:07
40,Cisco 2950 Series,2,4,3,CISCO,NULL,"{""row"":""3"",""rack"":""9C""}",NULL,NULL,NULL,11/30/2021 7:08,11/30/2021 7:08
41,Cisco 2950 Series,2,4,3,CISCO,NULL,"{""row"":""3"",""rack"":""9C""}",NULL,NULL,NULL,11/30/2021 7:09,11/30/2021 7:09
42,IBM PowerPC 550,2,4,1,IBM,NULL,"{""row"":""3"",""rack"":""9C""}",NULL,NULL,NULL,11/30/2021 7:11,11/30/2021 7:11
43,HMC IBM X3550 KVM,2,4,2,IBM,NULL,"{""row"":""3"",""rack"":""9B""}",NULL,NULL,NULL,11/30/2021 8:14,11/30/2021 8:14
44,IBM PowerPC 550,1,4,1,IBM,NULL,"{""row"":""3"",""rack"":""9B""}",NULL,NULL,NULL,11/30/2021 8:14,11/30/2021 8:14
45,IBM PowerPC 550,1,4,1,IBM,NULL,"{""row"":""3"",""rack"":""9A""}",NULL,NULL,NULL,11/30/2021 8:15,11/30/2021 8:15
46,IBM PowerPC 550,1,4,1,IBM,NULL,"{""row"":""3"",""rack"":""9A""}",NULL,NULL,NULL,11/30/2021 8:15,11/30/2021 8:15
47,server ibm x 3650 M3,2,4,1,IBM,NULL,"{""row"":""2"",""rack"":""4A""}",NULL,NULL,NULL,11/30/2021 8:15,11/30/2021 8:15
48,Switch UBNT,2,4,3,UBNT,NULL,"{""row"":""3"",""rack"":""10C""}",NULL,NULL,NULL,11/30/2021 8:16,11/30/2021 8:16
49,Server IBM X 3650 M3,2,1,1,IBM,NULL,"{""row"":""2"",""rack"":""4A""}",NULL,NULL,NULL,11/30/2021 8:17,11/30/2021 8:17
50,Server IBM X 3650 M3,1,4,1,IBM,NULL,"{""row"":""2"",""rack"":""4A""}",NULL,NULL,NULL,11/30/2021 8:18,11/30/2021 8:18
51,Server IBM X 3650 M3,1,4,1,IBM,NULL,"{""row"":""2"",""rack"":""4A""}",NULL,NULL,NULL,11/30/2021 8:19,11/30/2021 8:19
52,IBM Power S822L,1,4,1,IBM,NULL,"{""row"":""3"",""rack"":""10C""}",NULL,NULL,NULL,11/30/2021 8:20,11/30/2021 8:20
53,IBM SAN SWITCH 248-5,1,1,3,IBM,NULL,"{""row"":""3"",""rack"":""10C""}",NULL,NULL,NULL,11/30/2021 8:22,11/30/2021 8:22
54,Hitachi VSP G200,1,4,4,Hitachi,NULL,"{""row"":""3"",""rack"":""10A""}",NULL,NULL,NULL,11/30/2021 8:22,11/30/2021 8:22
55,IBM SAN SWITCH 248-5,2,1,3,IBM,NULL,"{""row"":""3"",""rack"":""10C""}",NULL,NULL,NULL,11/30/2021 8:22,11/30/2021 8:22
56,Hitachi VSP G200,1,1,4,Hitachi,NULL,"{""row"":""3"",""rack"":""10A""}",NULL,NULL,NULL,11/30/2021 8:23,11/30/2021 8:23
57,Brocade SAN 6505,2,1,3,Brocade,NULL,"{""row"":""3"",""rack"":""10B""}",NULL,NULL,NULL,11/30/2021 8:24,11/30/2021 8:24
58,Hitachi Quanta DB51-2U,1,1,1,Hitachi,NULL,"{""row"":""3"",""rack"":""10B""}",NULL,NULL,NULL,11/30/2021 8:24,11/30/2021 8:24
59,Brocade SAN 6505,2,1,3,Brocade,NULL,"{""row"":""3"",""rack"":""10B""}",NULL,NULL,NULL,11/30/2021 8:25,11/30/2021 8:25
60,Hitachi Quanta DB51-2U,1,4,1,Hitachi,NULL,"{""row"":""3"",""rack"":""10B""}",NULL,NULL,NULL,11/30/2021 8:27,11/30/2021 8:27
61,Brocade SAN 6505,1,1,3,Brocade,NULL,"{""row"":""3"",""rack"":""10B""}",NULL,NULL,NULL,11/30/2021 8:28,11/30/2021 8:28
62,Brocade SAN 6505,1,4,3,Brocade,NULL,"{""row"":""3"",""rack"":""10B""}",NULL,NULL,NULL,11/30/2021 8:29,11/30/2021 8:29
